{
  "timeZone": "America/New_York",
  "dependencies": {
    "libraries": [{
      "userSymbol": "SlackApp",
      "libraryId": "1on93YOYfSmV92R5q59NpKmsyWIQD8qnoLYk-gkQBI92C58SPyA2x1-bq",
      "version": "22"
    }]
  },
  "exceptionLogging": "STACKDRIVER"
}
